<svg xmlns="http://www.w3.org/2000/svg" width="49.259" height="33" viewBox="0 0 49.259 33">
  <g id="noun-cap-168879" transform="translate(0)">
    <path id="Path_606" data-name="Path 606" d="M112.535,80.747a1.335,1.335,0,0,0,.306.228c4.9,4.427,4.8,18.166,4.8,18.759a.523.523,0,0,1-.51.457.486.486,0,0,1-.51-.457c0-.137.1-13.967-4.49-18.075a4.088,4.088,0,0,0-2.347-1.1h-.867c-10.3.365-11.121,13.419-11.121,13.556a.523.523,0,0,1-.51.457.486.486,0,0,1-.51-.457c0-.137.561-9.22,6.683-12.917-8.01,1.826-13.112,7.485-13.724,15.884l-9.591,8.535c-.765.685-.1,1.78.918,1.643a29.507,29.507,0,0,1,4.03-.73c7.092,0,7.347,3.743,15.612,3.743,6.02,0,12.653-5.8,15.765-8.9,9.03-.685,12.6-2.556,12.6-2.556-.051-10.224-7.193-16.842-16.53-18.075Zm1.02,20.813c-3.214,0-6.836-1.506-10.306-2.967-2.908-1.232-5.663-2.374-7.7-2.374a9.278,9.278,0,0,0-3.775.5.537.537,0,0,1-.714-.137.422.422,0,0,1,.153-.639c.1-.091,1.225-.685,4.337-.685,2.245,0,5.1,1.187,8.163,2.465,3.367,1.415,6.888,2.876,9.847,2.876a.459.459,0,0,1,.51.457.493.493,0,0,1-.51.5Zm-2.5-22.821a1.7,1.7,0,0,0-3.367-.046c.561-.046,1.122-.046,1.684-.046s1.122.046,1.684.091Z" transform="translate(-79.807 -77.278)" fill="#9d9d9d"/>
  </g>
</svg>
